<svg width="14" height="8" viewBox="0 0 14 8" fill="none" xmlns="http://www.w3.org/2000/svg">
<path fill-rule="evenodd" clip-rule="evenodd" d="M7.89999 6.77148L13.5429 1.12857L12.4144 0L6.77144 5.64293L1.1286 4.87073e-05L0 1.12862L5.64294 6.77143L6.77149 7.9L7.89999 6.77148Z" fill="white"/>
</svg>
